15442	87738	50.73549338
15443	100539	79.59739701
15474	78864	182.2381692
15474	100545	83.21193472
15569	101050	25.95054773
15570	78214	76.74509862
15574	15575	102.1922776
15574	15577	48.90363921
15575	87686	24.2211922
15575	88232	49.15841003
15576	100537	365.6858134
15577	100547	135.7584585
15577	101043	43.72751644
15577	104237	39.86195711
15578	78584	23.99018824
15578	78585	28.86353561
15578	88234	14.59751383
15579	15576	175.8276109
15579	15585	60.97533411
15579	78030	143.5021597
15580	15677	1824.837232
15582	105270	120.7537816
15584	105268	123.8961396
15585	87678	303.4077798
15587	63942	288.321031
15588	15590	366.5309734
15589	15590	326.0893728
15590	15591	373.9340064
15590	15592	286.1058619
15591	15592	268.7257123
15591	15608	320.776695
15592	15593	253.8852867
15593	15692	231.0228864
15594	15593	280.8899088
15594	15693	243.3407646
15601	15602	296.0192987
15602	15603	191.8389081
15602	15607	332.6494269
15603	15605	221.8822342
15603	66015	261.3235362
15604	15607	132.0821517
15605	15606	180.6056099
15606	20483	254.6924834
15607	15608	114.467852
15607	66046	75.8926373
15607	69102	174.414376
15608	15594	213.7056337
15610	15606	238.6293657
15611	15613	105.2453317
15612	20483	236.5448965
15612	20566	477.0125598
15613	15693	248.8100121
15613	15704	757.2065525
15615	15613	202.4684401
15615	15700	248.5638846
15615	15702	737.8657983
15615	66043	158.0336734
15688	15691	574.6043761
15689	84251	40.51137223
15689	92972	182.9890458
15690	84140	348.2672699
15691	84419	521.7819257
15692	15694	262.1060068
15692	15699	722.2510767
15693	15692	269.3992818
15693	15703	741.1389251
15694	15695	434.6470008
15694	15698	703.464464
15695	84206	152.5433636
15695	87983	33.13559704
15696	15691	220.3816334
15697	15696	171.6700616
15697	84218	399.4867521
15698	15697	379.0256269
15698	77773	255.1759316
15699	15698	261.9554233
15699	77772	172.4232851
15700	15610	272.0137864
15700	15701	172.012792
15701	15612	280.8505251
15701	78691	177.1530706
15702	15704	201.9377959
15702	84418	51.04151302
15703	15699	261.2440634
15703	77771	95.25402111
15704	15703	246.1799108
15704	84316	60.83612337
15705	15707	200.4271391
15705	84420	42.70562501
15706	15709	212.2522633
15707	15710	258.2716758
15707	84431	37.55233781
15708	15706	321.7068816
15708	15712	53.28814639
15709	20571	207.084594
15710	15793	272.1485163
15710	84239	37.57869747
15711	15708	198.7932248
15711	15811	279.2686377
15712	15810	416.4882796
15712	15812	260.123188
15787	15913	1738.793097
15788	84421	41.25043241
15788	88239	22.36812271
15793	15794	269.4119899
15793	84111	31.90951613
15794	15800	356.0855184
15794	84112	37.44931258
15795	15802	257.3744301
15795	92936	37.3807351
15796	15797	40.07264888
15796	84240	31.08685398
15797	15804	13.64355237
15797	84338	33.05317053
15800	15796	403.6868045
15800	84195	34.46100704
15801	78618	114.1030148
15801	92942	28.96817252
15802	15801	322.4427437
15802	92940	38.1797354
15803	15806	319.95989
15804	102544	23.06016034
15806	15920	575.7597653
15806	78617	115.5099658
15807	15803	253.2855019
15807	15922	639.7863051
15808	15924	108.0033433
15809	15711	254.878262
15809	15813	276.2344324
15810	15709	260.9954506
15810	20659	439.6909819
15811	15814	61.46306076
15812	15811	192.329911
15812	15815	53.93593421
15812	66029	82.26016412
15813	15795	260.2777623
15813	92934	34.05888036
15814	15818	70.66690184
15814	92991	50.36968109
15814	92992	30.42118724
15815	15814	191.7298705
15815	15819	72.3674195
15815	66029	75.66670144
15815	92890	109.6553372
15816	15810	239.0153546
15816	20660	439.9676373
15817	15807	265.7394182
15817	15826	632.0953035
15818	15827	632.5566963
15818	92993	34.40492687
15819	15818	195.3033137
15819	15821	119.0898
15819	66030	96.1223985
15820	20662	440.0134459
15820	92892	32.22074572
15821	15822	187.2194999
15821	15823	253.2652352
15822	15820	146.9924139
15822	20663	440.1149465
15823	15824	71.10812496
15823	15825	132.6867765
15824	15822	225.9825296
15824	20667	439.9631382
15825	15824	112.7093442
15826	15922	271.5240501
15826	15937	425.5460442
15827	15826	244.8193731
15827	15934	241.4616409
15828	15825	157.9591747
15828	15827	128.7420013
15828	15829	95.09949486
15829	15933	346.5337955
15920	15808	409.2638182
15920	15921	57.6703476
15921	15925	67.61511117
15922	15921	515.5537449
15922	15929	414.9257915
15923	63242	782.4363913
15924	88247	353.4566689
15925	15927	329.9166676
15927	15932	438.6571736
15928	15927	126.4673364
15929	15938	434.5366802
15930	16022	538.6541577
15932	15930	392.020463
15932	16024	527.2154276
15933	20667	239.6312706
15933	20755	452.8750187
15934	15828	264.1695913
15934	15935	176.7933858
15935	15937	247.4238046
15935	15940	428.6267882
15937	15929	272.1112667
15937	15939	428.95001
15938	15932	500.3889721
15938	16033	521.8856736
15939	15938	270.1707513
15939	16034	542.5797945
15940	15939	247.5506128
15940	16035	507.9625214
16021	88250	18.19816395
16021	108173	557.0960127
16022	16027	240.9413764
16022	101105	35.71359019
16023	16022	193.2376757
16023	16028	242.8270553
16024	16023	177.5788649
16025	16024	235.5097753
16025	16030	329.6000312
16026	100259	55.23785009
16026	102981	23.46065931
16027	16028	193.5666567
16027	16032	162.7807873
16028	16029	83.30236377
16029	16031	82.52949095
16030	16029	426.3865266
16031	16154	751.0375791
16032	16031	192.2960715
16032	100031	419.9434271
16033	16025	264.790411
16033	16039	328.8263191
16034	16033	258.7944962
16034	16036	287.3569683
16034	66032	312.3518486
16035	16036	177.4668699
16035	66031	226.3699552
16036	16038	282.8880032
16036	66003	441.6983551
16037	16038	224.9082564
16038	16040	274.3231578
16038	20870	374.3581876
16039	16030	260.0954744
16039	16162	849.7382698
16040	20942	372.0344928
16040	66004	100.0850344
16148	16152	263.1798247
16148	100031	70.45617491
16149	88335	44.84814933
16150	16154	247.2138357
16150	19176	750.8202998
16152	84110	134.2446228
16154	16153	183.735745
16157	19175	402.0121062
16158	16160	239.0099027
16160	16161	354.903424
16160	16163	213.6300421
16161	20942	502.2070085
16161	20950	219.3187761
16162	16150	492.090996
16162	16167	439.8709694
16163	16162	259.3658893
16163	16166	287.0786497
16165	16161	255.1420065
16165	20953	207.1941356
16166	16167	201.5687192
16166	16168	358.306011
16167	19183	507.1302057
16168	16165	241.2962641
16168	19180	201.6424818
19175	19177	280.0907077
19176	19183	330.4829269
19177	19178	63.30660737
19177	108187	60.76575442
19178	19184	309.9735553
19178	101520	271.8208154
19180	78872	59.93753382
19180	100431	156.4250423
19181	78451	60.64658938
19181	106116	63.3812577
19182	21769	105.5579651
19183	19189	507.8431596
19184	19193	507.448712
19185	71490	211.2872058
19185	78450	77.29277797
19186	19190	223.7975927
19186	84142	20.9735755
19187	19191	227.4058335
19189	71490	28.02206694
19190	84141	20.79345853
19190	88392	19.69205643
19191	21835	933.1425677
19193	101521	115.7000132
19194	88792	22.1196844
19194	108179	15.71835732
19269	19338	1790.317659
20480	20477	248.9002429
20480	20484	475.8897404
20481	20484	252.5043607
20483	20480	252.1335068
20483	20485	475.3841854
20484	20482	259.1396904
20485	20484	251.6063966
20566	20485	237.838137
20569	20566	280.038519
20569	63195	257.0665335
20569	78692	290.5896934
20571	20572	429.9450958
20571	78052	161.4480443
20571	103046	86.05744619
20572	20570	300.4235662
20572	20574	460.3025459
20573	20658	459.7440289
20574	20658	218.8353951
20574	20671	361.555872
20581	20574	294.6003685
20585	87417	42.34030027
20585	87419	49.67176879
20585	88171	38.79760567
20658	20661	260.5940159
20658	20672	362.7106931
20659	20573	262.2713187
20659	20661	461.1161862
20660	20659	240.9691106
20660	20664	460.7577776
20661	20664	237.9615904
20661	20675	361.6889803
20662	20665	460.6023119
20662	92898	32.63941031
20663	20662	145.1953657
20663	20668	460.7904458
20664	20666	361.0389849
20664	92903	35.37534466
20665	20668	141.0897886
20665	20669	360.7693438
20666	20675	230.717528
20666	78146	320.5213524
20667	20663	224.3595036
20667	20753	460.9832826
20668	20670	360.7467047
20668	20753	224.6702985
20669	77971	319.2785247
20669	92907	38.54502799
20670	20669	143.8698193
20670	77972	318.4348822
20671	20583	316.7365729
20671	103070	322.9044338
20672	77969	324.1332241
20673	20674	219.3714641
20673	78162	28.0559289
20674	20676	261.7150524
20674	78323	32.32908328
20675	20672	261.0533772
20675	78587	320.5010036
20676	20678	239.3461949
20676	78589	30.36040646
20677	20679	260.9326599
20677	20689	451.1041213
20678	78588	30.62825345
20678	92912	35.12578376
20679	20765	232.6214486
20679	20774	451.3102871
20680	20764	142.1057995
20680	78324	28.83569889
20681	20684	235.9743936
20683	20688	426.8036675
20684	20685	217.2995121
20684	20687	146.8628872
20687	20688	450.9422745
20688	78069	455.5103402
20689	20774	260.1584088
20689	78070	460.7201493
20690	20691	74.96606263
20690	78619	25.96277569
20691	20692	223.3802762
20691	87506	31.29288904
20692	20775	260.9954964
20692	87508	28.13536678
20695	88229	29.70223104
20697	20702	219.534918
20700	20706	542.4541757
20702	20705	257.8698294
20704	20785	609.4190019
20705	20706	273.7685597
20705	20780	758.2401669
20706	67592	223.5483397
20706	68570	102.2121943
20710	20786	673.0572758
20712	20792	726.2877572
20712	68747	143.8409155
20714	20715	177.4506464
20714	68746	48.54184923
20715	20791	245.8807073
20715	20793	532.449275
20716	20791	176.1863428
20716	20797	260.4918742
20725	20797	257.7645655
20726	20798	132.5417412
20727	20802	424.3404942
20728	20804	506.6070009
20753	20754	360.6904244
20753	20755	240.4999963
20754	20670	226.8549397
20754	78242	319.4454327
20755	20756	368.1511684
20755	20757	238.6214863
20756	20754	239.6167709
20756	78243	318.2422606
20757	20758	376.0097905
20757	20759	247.6360654
20758	20756	236.1744584
20758	93667	262.2025884
20759	20761	375.6747497
20759	20762	242.5087989
20760	77965	25.89760845
20760	100438	124.7214907
20761	20758	250.1469008
20761	77886	256.1905502
20762	15940	618.0396599
20762	20858	254.542678
20763	78260	56.08473606
20763	93669	128.3428014
20764	20767	226.2164382
20764	77964	27.37412166
20765	20776	455.6003238
20765	92924	40.27990028
20766	20768	139.0647835
20766	20777	456.1096637
20767	20770	240.796641
20767	77963	30.40679123
20768	20769	226.7199851
20768	20779	451.2570027
20769	20771	242.0296783
20769	20781	451.6571912
20770	20760	242.0394327
20770	77966	22.09615066
20771	20772	450.2141233
20771	20773	235.8846947
20772	20874	236.0591757
20772	77949	453.1373418
20773	20874	450.8507659
20773	20875	250.6598735
20774	20776	241.5213191
20774	78379	455.3885227
20775	105793	191.1067051
20776	87984	459.9561247
20776	92926	29.95283663
20777	20779	152.5937496
20777	87985	456.0349814
20778	78602	26.54534412
20778	105795	29.53931895
20779	20781	224.7781385
20779	78543	457.9679539
20780	20787	270.5671175
20780	20884	695.6117361
20781	20772	244.7649129
20781	77948	451.7201716
20782	20783	218.3939888
20782	87579	27.20602434
20783	20883	249.8393998
20783	78603	31.61507666
20785	20786	252.0590383
20785	20788	754.7276893
20786	20789	754.1719581
20786	20792	248.1812618
20787	20788	274.3902528
20787	20885	697.794163
20788	20789	256.8545254
20788	20887	697.9275472
20789	20790	246.227158
20789	20894	698.2520595
20790	20893	256.7071127
20791	20794	532.2462753
20792	20790	754.1200065
20792	20793	258.6225945
20793	20794	239.4275588
20793	20893	753.2466102
20794	20795	257.1619747
20794	20898	754.1142481
20795	20796	245.0328699
20795	20899	753.4380316
20796	20809	247.6619252
20796	20900	758.1613069
20797	20795	709.3177065
20797	20800	108.6375286
20798	20801	197.2976709
20800	20801	130.4431005
20800	20803	220.6736028
20801	20802	247.9262852
20801	20803	172.7307003
20802	20804	249.979727
20802	20807	536.425258
20803	78427	83.08199175
20803	78428	86.33786229
20804	20805	187.6359175
20804	20806	266.5658098
20805	20903	521.5040417
20806	20808	210.342072
20806	20816	266.5945355
20807	20809	174.6407932
20808	20904	500.8373965
20809	20901	754.0968871
20809	20903	250.275265
20811	20806	593.9335207
20812	20816	692.8113406
20816	20817	286.9171796
20816	20905	709.8813834
20857	20761	250.8817617
20857	20762	374.1285858
20858	16037	254.9515931
20859	20857	230.8102239
20859	100419	115.7697332
20860	93668	48.24051608
20860	100416	109.9013263
20861	20860	55.37363145
20861	100377	110.8152522
20861	100411	107.1978612
20861	100415	106.3849692
20862	20857	262.0216455
20863	20867	209.3814472
20864	20868	249.1846699
20864	93487	25.22854919
20865	20869	252.3444985
20865	20879	452.7149747
20866	20862	234.6600365
20866	20867	221.4500103
20867	20871	273.7368056
20867	102161	44.46036728
20868	20872	265.127896
20868	93486	20.3965012
20869	20873	261.5350483
20869	20882	452.7764204
20870	20866	273.7068928
20870	20871	218.8177719
20871	20943	226.951021
20871	78741	46.25243299
20872	20944	234.4696139
20872	93485	25.909991
20873	20945	237.8309057
20873	20946	439.9320548
20874	20877	250.290948
20874	78088	455.0599655
20875	20876	250.1473779
20875	20877	450.1479826
20876	20861	476.1481049
20876	20879	251.2486577
20877	20878	251.2811367
20877	78087	453.6513245
20878	20876	450.7071772
20878	20881	249.6243958
20879	20882	250.1376226
20880	20881	170.5143779
20881	20956	250.3189748
20881	78199	462.5717632
20882	20946	274.0219908
20882	20956	450.8682067
20883	20884	29.45759472
20883	20886	232.7407065
20884	20885	287.0939459
20884	87585	233.992295
20885	20887	266.5213133
20885	20890	734.7232959
20886	20888	250.3965707
20886	87585	24.31195242
20887	20892	735.5586966
20887	20894	257.7897008
20888	20889	254.6468899
20888	87594	26.42578244
20889	20891	245.0954677
20889	78092	30.02982983
20889	78831	26.01402432
20890	20892	272.4583007
20890	20961	746.9446327
20891	20957	249.7447421
20891	87597	28.5906497
20892	20965	252.3918321
20892	20967	747.1352515
20893	20896	698.1758593
20893	20898	240.7817103
20894	20895	247.6239922
20894	20965	735.3707223
20895	20896	254.151691
20895	20971	735.8476278
20896	20897	241.6449228
20896	20972	735.6975914
20897	20902	255.054824
20897	20973	736.4153545
20898	20897	696.9666602
20898	20899	256.7603131
20899	20900	244.7173597
20899	20902	697.8310972
20900	20901	245.7627273
20900	20976	695.2873703
20901	20906	249.9431496
20901	20977	697.1020189
20902	20976	247.7413223
20903	20904	266.3565873
20903	20906	754.6404556
20904	20905	265.9703767
20904	20907	753.7900469
20905	20908	752.6536892
20905	20911	287.3722865
20906	20907	265.3143665
20906	20978	698.4223314
20907	20908	269.0051746
20907	20979	698.8717004
20908	20982	290.3917388
20908	20984	700.1291818
20942	20943	222.063863
20943	20947	250.0599376
20943	78742	43.2634454
20944	20948	251.1636145
20944	93483	29.68167645
20945	20949	253.8931753
20946	20958	451.790249
20947	20950	252.3723165
20947	78804	50.25567399
20948	20951	250.0866187
20948	93481	26.77504013
20949	20952	256.9963056
20950	20953	253.6487075
20950	78895	51.22517098
20951	93480	23.66377884
20951	100425	251.2866591
20952	20954	427.0331942
20952	100428	248.7630909
20953	19180	243.4317053
20953	100423	58.40856612
20954	20955	184.4791987
20954	20964	440.1123779
20956	20958	260.4700451
20956	78198	457.7384571
20957	20960	255.9888739
20957	87636	27.54127859
20958	20959	267.8442141
20958	78322	457.9343516
20960	20963	491.2628416
20960	78163	28.62240594
20961	20967	272.5008419
20961	21776	758.2272566
20962	20964	270.2318797
20962	70581	384.6292528
20963	21775	271.4286643
20964	78591	470.4633226
20965	20968	747.0166492
20965	20971	251.8925069
20966	20969	545.9841751
20967	20968	252.0037701
20967	21777	753.1550302
20968	20969	252.8506868
20968	21782	754.6066579
20969	20970	255.8932952
20969	21783	754.6572757
20970	21784	756.8177738
20970	21788	240.344966
20971	20972	254.7399701
20972	20970	745.8338181
20972	20973	241.7587486
20973	20974	254.9530248
20973	21788	745.4143029
20974	20975	247.85489
20974	21789	746.0718742
20975	20980	243.858342
20975	21790	746.3818831
20976	20977	244.1926371
20977	20978	250.091584
20977	20980	735.9223574
20978	20979	266.3852155
20978	20981	735.2265069
20979	20984	266.4547828
20979	21795	736.9717718
20980	20981	250.5687385
20980	21791	749.5347082
20981	21792	753.4852409
20981	21795	266.5486989
20982	92591	33.72909324
20984	21796	736.0722493
20984	92593	277.9650036
21767	19182	146.5606119
21767	93477	23.17192918
21768	21771	141.2792063
21769	93474	18.5437808
21769	106111	53.77075148
21770	63521	48.79489686
21771	21770	106.4392172
21772	78834	366.7056155
21773	21772	252.3297197
21773	78833	393.0947893
21774	100133	97.10480221
21774	101527	350.2666353
21775	21776	20.11664154
21775	70345	227.0182443
21776	21777	286.0014289
21776	78065	228.4967689
21777	21782	251.5441282
21778	70344	137.1297606
21781	21837	259.5089639
21781	87673	25.58623942
21782	21783	253.4151713
21783	21784	255.8250508
21784	21785	240.7736554
21784	21850	675.5857477
21785	21787	255.2436401
21787	21853	247.7491439
21788	21785	754.3048421
21788	21789	254.4353589
21789	21787	753.8615996
21789	21790	248.4470247
21790	21791	246.8807477
21790	21853	755.3432802
21791	21792	247.2078231
21791	21793	418.4142319
21792	21798	259.7965029
21793	21794	246.726381
21793	21855	332.9221661
21794	21854	259.1185991
21795	21796	266.2318582
21795	21798	751.6430613
21796	21797	407.5705476
21796	92597	267.5615708
21798	21799	271.7311777
21799	21800	296.6147681
21799	21862	753.1218579
21833	21839	389.3576787
21834	21844	618.5605187
21835	21838	383.847941
21837	21841	101.682792
21837	87676	28.16004373
21838	21839	34.38621565
21838	21841	46.97420144
21839	21840	45.65397632
21839	108183	21.13636634
21840	88805	33.8047852
21840	108191	17.84335268
21841	21840	33.12361756
21841	87685	37.53634053
21842	21845	268.0930975
21844	21846	884.025701
21845	21850	279.6446852
21846	84159	79.81474918
21846	108185	49.16489901
21849	21851	70.84075293
21849	88817	28.82148069
21850	88828	487.2031384
21851	100335	488.2492942
21853	21855	246.8937855
21854	21856	336.1246145
21855	69108	210.0119998
21855	75031	248.5956112
21856	21862	267.809242
21858	21946	725.9145809
21862	21863	285.92762
21862	63201	479.1082409
21946	21947	111.5342704
21946	101698	110.426261
21947	21865	182.0462349
21947	88961	171.5201262
63195	103045	245.5447699
63242	16021	542.0995469
63491	63492	230.3879292
63492	63493	358.068856
63493	63494	361.2984258
63494	78590	286.6234232
63521	19187	196.8856473
63521	63491	181.3810719
63940	15923	102.1245828
63942	15690	764.6242547
64176	15694	433.6616294
64178	64176	71.75810615
64178	77068	329.2046034
64179	64180	94.52952652
64180	84206	411.9726849
66003	16158	186.8985736
66004	16158	159.6313046
66004	66003	85.64546403
66006	20797	247.3293869
66015	20480	288.6394865
66029	15816	216.9181195
66030	15820	153.662731
66031	16034	41.76670748
66032	16163	862.2872154
66043	66044	78.60170453
66044	66045	57.80359218
66045	15610	91.26701233
66046	15605	319.1436161
66047	20712	71.5684051
66086	20705	108.2282202
67592	67594	241.3597796
67594	20787	289.720959
68570	68571	13.34321888
68571	20785	155.0912179
68744	20712	26.46329154
68745	68746	155.3332814
68746	20716	193.7083623
68747	20714	115.0028171
68747	68745	181.1351354
69102	15615	180.981205
69102	69103	62.38665347
69103	15611	87.13949056
69103	15615	181.0725683
69108	69109	173.7471635
69108	99742	71.38777666
69109	21857	209.4385221
70344	21781	112.1155542
70345	21778	253.8226957
71490	78851	85.80996745
75031	21856	264.0423805
77065	87678	176.5436933
77067	78620	351.182195
77068	64179	136.5541387
77771	77772	272.7277376
77771	84317	32.81728471
77772	77773	271.5641565
77772	84378	37.94697021
77773	84377	34.06288309
77886	93666	46.94151696
77886	100379	163.6062274
77887	20865	42.15959807
77887	78261	250.5890664
77888	19187	84.2696655
77888	77889	226.7750139
77889	19191	98.41301453
77889	101523	18.14138566
77918	20760	34.77795174
77918	100439	122.7750101
77918	100440	134.1792296
77941	78214	411.5941261
77941	87819	58.14624093
77948	20783	31.45713672
77948	77949	251.5374722
77949	20883	41.07162948
77949	78088	232.8575353
77963	20769	470.8906766
77963	77966	240.9890806
77964	20768	473.5075406
77964	77963	226.2390262
77965	20773	476.4797896
77965	100437	125.4437799
77966	20771	477.7034166
77966	77965	241.890778
77969	20674	27.42185994
77969	78587	260.7072823
77971	20680	33.37445907
77971	77972	140.8841565
77972	20764	34.5726166
77972	78242	226.2716195
78030	15577	47.76800789
78030	87686	113.2671917
78052	20569	174.1550832
78052	63195	99.0897754
78052	78053	244.7673156
78065	87654	249.0104293
78066	87673	114.2355111
78069	20691	31.0158767
78069	78070	219.2644071
78070	20692	26.33610878
78070	78379	260.9652225
78071	92959	31.47291743
78087	20888	32.19260082
78087	78092	254.440939
78088	20886	30.47391424
78088	78087	250.4059793
78092	20878	456.2365004
78092	78199	245.3951076
78146	20678	32.42835761
78146	92910	36.49495786
78162	20687	471.450575
78162	78323	219.3169281
78163	20961	101.8258766
78163	87638	487.5460053
78198	20957	29.34584494
78198	78322	256.253222
78199	20891	24.10469614
78199	78198	249.870982
78214	15569	36.96306293
78214	101052	28.18866877
78242	20767	33.41428392
78242	78243	240.693526
78243	20770	36.5254489
78243	77918	243.7382773
78260	20875	465.4525227
78260	100010	122.0378097
78261	20869	39.92420669
78261	78743	263.0084412
78321	78591	271.3396314
78322	20960	29.09907377
78322	78321	490.8607167
78323	20677	467.4290643
78323	78589	261.6886605
78324	20766	468.188388
78324	77964	142.6343418
78379	20775	35.29109896
78379	87984	193.4150481
78416	78417	353.0955875
78416	100131	453.5918273
78417	78449	1787.624094
78427	20796	447.2637882
78427	78428	52.83147435
78428	20807	345.7665897
78450	78851	215.0342882
78450	84355	22.66690585
78451	84320	22.68590381
78451	106114	58.5406825
78543	20782	27.69238598
78543	77948	216.6165964
78549	78913	354.0475919
78549	84095	22.38592247
78584	78585	16.07278103
78584	84306	194.7208562
78585	15582	91.5132505
78585	78902	64.78400126
78585	88726	198.9636386
78587	20676	32.08748506
78587	78146	237.8546008
78588	20765	466.8276907
78588	92913	34.17212677
78589	20679	470.4189243
78589	78588	240.8055858
78590	21778	30.52970686
78590	92352	137.4432126
78591	21775	26.87530027
78591	87653	223.7449168
78602	20780	106.0728267
78602	105796	26.49341757
78603	20884	250.5701092
78617	92946	28.46117456
78617	102544	286.2725274
78618	15797	290.7146839
78619	66086	102.2680009
78619	87506	61.14047271
78620	15585	99.3324231
78620	77065	170.3248403
78675	78870	29.50074398
78681	21774	450.0459673
78681	108181	16.51256231
78691	20569	304.8748669
78691	78692	303.4529583
78692	103045	230.22203
78692	105609	202.5417239
78713	100545	53.82109296
78741	78742	229.8595027
78741	84294	25.5399331
78742	78804	250.7859336
78742	84295	24.90736402
78743	20873	47.30821778
78743	93484	236.7106417
78804	78895	252.2736821
78804	84353	24.56388201
78831	20890	198.9905283
78831	87597	242.0239967
78833	21837	30.47681011
78833	21838	112.1055494
78834	21781	31.61793013
78834	78833	259.2292583
78851	84396	23.80336668
78851	101525	26.46278176
78864	77067	200.4980848
78869	78619	24.80598132
78870	78869	347.9658478
78872	84319	23.14830074
78872	100430	151.8164296
78883	21770	72.34781611
78883	106108	53.66952585
78895	84354	24.16046203
78895	100423	249.384478
78902	78925	1824.209263
78911	92599	12.03392844
78913	78021	1793.692642
84094	19269	353.6081686
84094	84380	23.55316789
84095	84094	20.32353298
84095	84233	353.9513798
84110	84243	113.3798624
84111	15795	230.7854869
84111	84112	270.8726171
84112	15802	142.8308196
84112	84195	351.0959624
84139	94876	1728.994147
84140	15788	36.21776398
84140	88238	21.21061831
84141	77889	20.418984
84141	101526	17.66127805
84142	77888	18.12703637
84142	84141	226.7187538
84144	21844	42.92864965
84144	88812	28.1268714
84159	101670	490.1859564
84160	88937	728.3618319
84191	84189	1744.324175
84195	15797	404.2321854
84195	15801	84.28982204
84206	15689	38.20243929
84206	84286	185.6897123
84210	102983	275.984628
84215	20868	30.66940727
84215	84294	267.9942343
84218	15800	35.43949709
84218	84419	403.5577143
84233	84232	1792.070928
84239	15809	25.61552609
84239	84111	270.0539333
84240	15788	20.43846688
84240	84338	41.55180382
84241	84140	21.02055645
84241	84240	35.61972725
84243	84210	397.4852629
84250	15688	45.40382361
84251	15696	557.6913159
84251	84250	173.1192339
84261	21947	110.2264132
84263	78549	116.9382097
84286	15688	58.11838813
84294	20872	25.25559552
84294	84295	231.4692674
84295	20944	23.44130875
84295	84353	251.2210475
84297	101105	540.3460717
84298	84297	783.224548
84306	88237	166.4218077
84313	15697	586.5493181
84313	84251	173.2152668
84316	15707	44.32185366
84316	84317	257.5970544
84317	15710	44.62936556
84317	84378	274.4204915
84319	21767	22.89717375
84319	100429	150.6455424
84320	21769	22.40494973
84320	106112	56.55635693
84332	100020	704.6682202
84335	84334	1788.771114
84337	84298	103.6655757
84338	84337	588.2760947
84338	84421	20.85621294
84353	20948	25.88428817
84353	84354	252.2178792
84354	20951	26.38094332
84354	100424	249.7134003
84355	19186	23.59447917
84355	84396	220.8058647
84377	15794	34.46947075
84377	84218	360.3272897
84378	15793	35.47500159
84378	84377	270.0647279
84380	78416	19.6010264
84380	84335	353.1942563
84382	84263	506.4509993
84396	19190	23.95254111
84396	101524	21.50404004
84418	15705	43.59885968
84418	84316	201.5616437
84419	15796	35.80203407
84419	84241	28.66200824
84420	15708	58.02422848
84420	84431	201.3816916
84421	63940	583.9545228
84421	88240	21.74851748
84431	15711	35.83410322
84431	84239	258.0916851
87245	84382	314.9209405
87246	102984	286.8636592
87417	78162	304.9586432
87419	103070	300.8463586
87506	66086	100.0753354
87506	87508	233.9898184
87508	87538	262.0570405
87512	78069	76.44448937
87538	105794	190.2049263
87579	78603	217.4186528
87585	87594	249.5994618
87594	78831	257.69272
87597	87636	250.1822212
87636	78163	258.9917437
87638	21776	274.0973605
87653	78590	260.1887867
87654	78066	134.2911761
87669	77941	78.95409631
87673	87676	258.4166415
87676	87685	92.23558106
87678	15688	552.5688964
87685	21842	408.2513234
87685	88805	37.11133066
87686	15579	109.814809
87686	88233	48.7907828
87738	77941	33.57445873
87738	101055	431.3945227
87819	15570	305.9118676
87983	15689	165.1036785
87983	84313	32.96035957
87984	20778	42.68053273
87984	92927	30.84196335
87985	20778	43.96803499
87985	78543	202.3896244
88171	20673	301.9929243
88229	88230	343.2716018
88230	20690	24.37127497
88232	15578	17.83245489
88232	88233	24.17526273
88233	78584	17.64223821
88233	88235	193.4550186
88234	15580	65.00917457
88234	78585	22.92827755
88235	100353	137.2999462
88236	88729	288.5892588
88237	15587	337.0411231
88237	100353	39.23248601
88238	84139	22.26790815
88238	88239	35.65435952
88239	15787	22.53097342
88239	88240	40.70372525
88240	84191	22.25577143
88240	88251	578.0420396
88247	15930	427.5468109
88250	16026	18.200842
88250	100027	556.724266
88251	88253	103.3518917
88253	88254	779.7039871
88254	88250	544.3604695
88335	88732	341.4257491
88335	108172	105.5185023
88392	19194	31.37331595
88392	101524	23.57247147
88426	21835	321.1754537
88726	88727	175.9500769
88727	88236	316.026777
88728	84332	287.9748653
88729	90407	700.869032
88732	88734	143.093587
88733	16157	119.4665632
88734	88735	120.490975
88735	87246	412.1952705
88747	21834	320.549494
88747	100608	163.6363371
88792	78681	20.51797795
88792	108180	16.38308382
88805	100136	413.5847545
88805	108184	18.74960535
88807	21844	38.20006203
88807	100137	429.8210943
88812	21844	32.81608873
88812	88807	17.6619922
88817	21842	427.593839
88828	21857	518.1702371
88925	101446	64.81562135
88929	84160	68.28705471
88937	100146	113.7583955
90398	90399	598.6934896
90399	90407	700.4585091
90407	15690	68.16072875
90407	88238	417.776231
92352	78834	109.170598
92591	92593	667.8575992
92593	20985	20.20671062
92593	92597	740.4954602
92597	21803	19.84075085
92597	92599	555.6640122
92599	92638	156.329165
92638	21800	26.73530948
92878	87512	23.93371486
92890	92892	166.6502368
92892	15816	32.36941106
92892	92898	439.9921119
92898	20660	32.15499273
92898	92903	460.6661919
92903	20665	38.16438371
92903	92907	360.8718451
92907	20666	38.54515799
92907	92910	319.8939845
92910	77971	36.49178436
92910	92912	32.87270465
92912	20680	35.12582133
92912	92913	29.71783315
92913	78324	34.17344556
92913	92924	467.4668788
92924	20766	40.27684472
92924	92926	455.2463125
92926	20777	28.72802555
92926	92927	458.5272677
92927	20778	30.43185621
92927	87985	30.8405442
92934	15817	30.50563302
92934	92936	262.7235698
92936	15807	37.37726699
92936	92940	255.3286887
92940	15803	38.17620694
92940	92942	320.1827938
92942	15806	31.04122355
92942	92946	115.6707558
92946	15804	288.5666777
92946	78618	28.46138872
92959	92878	341.7066224
92972	15688	28.82358865
92991	92934	211.4801515
92992	15813	217.3581977
92993	15817	209.1784104
93474	78883	18.44505569
93474	106109	54.15484312
93475	93474	105.9593665
93476	78883	106.11689
93477	93475	145.5504994
93477	93478	15.02213348
93478	21768	73.71667223
93478	93476	144.7906174
93479	20952	70.09768578
93479	100427	250.3739758
93480	93479	15.41246484
93480	100426	250.734354
93481	93480	251.60309
93481	93482	18.09035467
93482	20949	65.67050928
93482	93479	252.6254683
93483	93481	251.8733662
93483	93484	21.87020147
93484	20945	62.10042236
93484	93482	252.4393464
93485	78743	25.14816201
93485	93483	236.0431572
93486	78261	20.39228878
93486	93485	263.4675527
93487	77887	17.7206948
93487	93486	250.147017
93666	20763	30.04986173
93666	100378	100.7271359
93667	77918	55.70240055
93667	100440	121.9559335
93668	20859	44.16940247
93668	100376	113.1922828
93668	100417	111.928637
93669	20860	118.0399989
99742	69109	93.63180026
100010	20861	122.4311465
100020	84241	404.1014489
100026	16148	325.6994848
100027	88335	246.5034203
100031	16153	322.69993
100131	88747	95.48025424
100133	88426	167.9191818
100133	100607	165.3336869
100136	21849	451.1494541
100137	21846	429.7701167
100146	88962	161.7372554
100259	102982	690.2992158
100335	101651	290.3093464
100353	15584	35.22942612
100353	88728	377.4556152
100376	100422	142.7774613
100377	93487	145.4855785
100378	93668	149.8052206
100378	100379	80.12259121
100379	20859	89.2759821
100411	20865	144.4475544
100415	77887	144.9603163
100416	20864	143.5046334
100417	100421	143.2697693
100419	20863	176.2333709
100421	84215	247.8868542
100422	102161	245.3918464
100423	78872	249.3814999
100423	100424	23.65279937
100424	84319	249.7147071
100424	100425	24.58285265
100425	21767	251.2866591
100426	93477	250.7325891
100427	93478	250.375124
100428	21768	248.7643459
100429	84320	102.5227752
100430	78451	101.0936308
100431	19181	95.72378286
100437	78260	125.4448283
100438	20763	124.7214009
100439	93666	122.7764958
100440	77886	121.952987
100537	78864	120.3903108
100539	15570	377.3325504
100539	87819	73.99879151
100545	100539	39.78684721
100545	100546	303.4529688
100546	100547	179.8705248
100547	78030	162.8946125
100607	21833	324.7913528
100608	100611	333.2007278
100611	84144	405.6015093
101017	88733	136.9004818
101043	87686	104.4839277
101044	15574	47.30529479
101047	15577	35.47881325
101050	104237	44.60826733
101051	101047	42.49297715
101052	101051	28.18630397
101055	15569	29.84641558
101105	16021	15.32710751
101105	100026	558.5493136
101168	19183	42.78189534
101169	101168	476.9445766
101188	88929	240.0531778
101446	84261	724.1627667
101520	19183	48.94384004
101521	101522	22.8697697
101521	108177	17.06610791
101522	19194	22.86546886
101522	108178	16.36982556
101523	78681	28.99072734
101523	101526	21.23714036
101524	101522	30.87660064
101524	101525	22.84250836
101525	101521	30.71236903
101525	105664	82.72661807
101526	88392	20.86929325
101526	88792	29.80006435
101527	101523	100.7689266
101651	88925	239.3711675
101670	101188	288.2423164
101698	21950	165.9420547
102161	78741	270.031776
102161	84215	23.71100043
102544	15808	559.8250015
102981	16149	738.8945148
102983	19178	59.79921693
102984	87245	60.58590286
103045	15705	362.0259587
103046	103045	183.2006203
103046	105610	163.0270509
103070	20673	29.80149568
103070	77969	221.2121589
104237	101044	31.5383531
105268	15579	80.64385064
105270	90398	160.0134713
105609	84418	355.9554651
105610	84420	366.6869708
105664	101169	31.97889302
105793	20778	34.3720667
105794	78602	38.93431667
105795	20782	202.6158814
105796	87579	201.6690413
106108	63521	74.19797064
106108	77888	189.6008486
106109	84142	188.9746002
106109	106108	18.38141208
106111	19186	189.2110339
106111	106109	19.08549486
106112	84355	188.8360225
106114	78450	188.1341635
106116	19185	187.4149313
108172	16148	29.81893109
108172	101017	238.6736413
108173	108172	351.0174981
108175	108176	506.949749
108176	108177	116.3023651
108177	78549	17.06396172
108177	108178	22.61547762
108178	84095	16.36973085
108178	108179	21.58523848
108179	84094	15.71848866
108179	108180	22.208157
108180	84380	16.22741785
108180	108181	20.68066464
108181	78416	16.51381099
108181	108190	452.5162478
108182	21774	52.76377535
108182	88747	52.64941257
108182	100133	50.58864548
108182	108188	211.793198
108183	84144	14.35278688
108183	108191	35.17410481
108184	88807	18.32196442
108184	108192	420.9658437
108185	21849	27.77063323
108185	108186	40.17464049
108186	108193	486.9894212
108187	108175	312.2771658
108188	108189	329.0779803
108189	108183	400.1792305
108190	108182	47.32415459
108191	88812	15.12497689
108191	108184	25.8563122
108192	108185	476.0600387
108193	108194	289.4494456
108194	108199	242.9340417
108199	21858	65.48042561