20735	20736	285.5939472
20735	20738	600.402272
20736	20649	1018.751852
20736	20737	266.2574299
20736	20741	604.4658221
20737	20650	1019.822099
20737	20743	602.2150709
20737	20745	244.5944623
20738	20740	161.543133
20738	20741	282.1822912
20740	20742	137.9398256
20741	20740	319.4211673
20741	20743	266.3975469
20742	20813	278.0670822
20743	20744	248.1833707
20744	20750	248.6513145
20744	99075	318.841958
20745	20651	1020.24407
20745	20744	597.7939823
20745	20746	244.3326133
20746	20652	1020.087924
20746	20747	243.1761046
20746	20750	531.1570895
20747	20655	1019.211665
20747	20748	244.088498
20747	20830	450.7822435
20748	20656	1020.143983
20748	20749	244.8834231
20748	20831	373.7416052
20749	20657	1020.197921
20749	20832	296.7498648
20749	20844	257.2634652
20750	20830	256.6399914
20750	77944	461.9175279
20813	20814	355.1585507
20813	20821	289.3145891
20814	20815	287.3138222
20815	20825	264.8904504
20819	20742	169.1928866
20820	20815	517.2460164
20820	99072	28.13871584
20820	99073	26.42749396
20820	102707	24.50914142
20821	20819	80.56596598
20821	20820	51.77931257
20822	99070	19.35169641
20822	99078	134.9014768
20823	20824	242.3646826
20823	99069	19.24605935
20824	20833	243.0593186
20824	78694	16.79485454
20825	20827	244.6128307
20827	20828	243.7807947
20828	20829	243.8799733
20830	20831	256.3264473
20830	77945	540.1556116
20831	20832	255.6603757
20831	78460	618.8443955
20832	20845	272.7198086
20832	78376	704.9172106
20833	20834	244.1964351
20833	78695	22.85758802
20834	20836	247.2867052
20834	77946	20.34135498
20836	20840	151.4689744
20840	20841	106.4862095
20841	20927	276.7919703
20841	78642	23.28979059
20843	20929	392.7769651
20844	20751	1019.796004
20844	20845	207.9663872
20844	20846	279.2335762
20845	69276	85.78215465
20845	77942	796.3900835
20846	20752	1022.844776
20846	20848	151.1563372
20846	20849	325.4087889
20846	69275	86.29434498
20847	20849	340.0652971
20847	63334	255.6022341
20848	20850	134.1470709
20849	20852	209.2644271
20849	69272	124.5868453
20850	21329	977.0692087
20850	69272	95.21859987
20851	21330	862.4432432
20851	21373	281.7874716
20852	20851	161.7885436
20852	21376	263.4466586
20853	63335	104.357713
20853	77943	530.6348896
20854	20855	259.2586354
20854	78818	503.0142015
20855	20856	262.2020833
20855	78817	495.9292943
20856	21433	257.1608779
20856	78839	494.5672263
20927	20935	277.7186217
20927	78815	18.85289586
20929	20931	279.3606941
20931	20932	274.8533713
20932	20939	257.9465381
20935	20936	257.3705166
20935	78684	20.7956478
20936	20937	257.5653321
20936	78063	19.94165511
20937	20938	257.5944889
20937	78064	21.23644843
20938	21437	257.4813867
20938	78632	21.96904711
20939	20940	258.9810658
20940	20941	255.7425082
20941	21007	259.2310127
21007	21494	256.7977287
21253	21254	255.9400148
21254	21251	899.7539711
21254	21333	257.7793143
21331	21332	257.4797033
21332	21254	900.7055697
21332	21336	257.3936951
21333	21252	900.3379735
21333	21334	257.892241
21334	21255	899.5370311
21334	21335	255.9332543
21335	21256	899.5271813
21335	21337	262.6685009
21336	21333	899.9579847
21336	21380	258.2373212
21337	21257	898.2941115
21337	21338	252.0622366
21338	21339	256.2225225
21339	21260	900.2879095
21339	21340	279.8907495
21340	21341	900.347697
21340	21344	278.1640167
21344	21342	900.5617589
21344	21396	257.2166025
21373	21331	761.3399872
21373	21374	271.4917439
21374	21332	665.6430672
21374	21375	277.2238643
21375	21336	566.3294186
21375	21384	275.9181989
21376	20856	506.8377151
21376	21373	259.0486774
21376	21377	255.9243709
21377	21374	354.4982757
21377	21378	256.5689693
21377	21433	507.2183244
21378	21375	453.6454144
21378	21379	258.1279244
21378	21434	507.3587482
21379	21384	553.0675707
21379	21435	507.2955646
21379	21440	258.450551
21380	21334	899.8833209
21380	21381	257.1919981
21381	21335	900.3767631
21381	21382	257.7412201
21382	21337	901.0273266
21382	21383	257.6564269
21383	21338	901.0696455
21383	21389	261.8213708
21384	21380	467.7661033
21384	21385	276.7121066
21385	21381	368.2964855
21385	21386	275.1814267
21386	21382	272.2716299
21386	21387	276.7442849
21387	21383	169.7707061
21387	21388	270.2428756
21388	21389	78.79534984
21388	21390	171.3620623
21389	21339	895.0874357
21389	21390	149.6003904
21390	21391	133.0745192
21390	21392	115.4389588
21391	21340	851.5338597
21391	21393	296.7967017
21392	21391	53.01295734
21392	21394	282.089367
21393	21344	746.9080997
21393	21399	278.8560451
21394	21393	154.5518241
21394	21395	260.4217373
21395	21399	252.1848845
21395	21452	257.5519913
21396	21343	897.8897408
21396	21397	256.4623019
21397	21345	898.3098788
21397	21398	259.3522201
21398	21346	899.8794077
21398	21403	256.0541318
21399	21396	648.5510779
21399	21400	272.833955
21400	21397	554.7441413
21400	21401	271.882325
21401	21398	468.0042984
21401	21402	267.3901316
21402	21403	394.677478
21402	21406	266.346355
21403	21347	900.4589254
21403	21404	256.9329407
21404	21348	899.0352366
21404	21405	258.5110116
21405	21349	896.6971955
21405	21407	278.1169036
21406	21404	324.8588579
21406	21408	268.5501343
21407	21409	900.1397486
21407	21457	280.7050489
21408	21405	255.3991406
21408	21456	289.2215406
21413	21411	532.3921015
21413	21414	261.266271
21414	21412	532.249527
21433	21434	257.7908484
21433	78841	496.5582669
21434	21435	257.9504771
21434	78840	493.9265456
21435	21436	257.2612508
21435	77895	493.5955189
21436	21444	256.8201341
21436	77894	494.1909512
21437	21438	257.4596308
21437	78881	20.62841541
21438	21439	257.2688088
21438	78630	21.34088778
21439	21492	257.6828978
21439	78631	19.48331385
21440	21385	652.2984428
21440	21436	507.4038586
21440	21441	255.6023667
21441	21386	747.7269429
21441	21442	257.234495
21441	21444	507.9243518
21442	21387	850.4798333
21442	21443	258.2668872
21442	21446	506.6125758
21443	21388	945.9507203
21443	21445	277.3177713
21443	21447	507.009867
21444	21446	256.8933799
21444	78604	494.659243
21445	21392	1015.596804
21445	21448	507.8166258
21445	21449	276.4274529
21446	21447	258.2465613
21446	21493	512.3816907
21447	21448	277.833051
21447	21502	511.1761385
21448	21501	277.7109129
21449	21394	1018.05237
21449	21450	259.201839
21449	21501	507.2247865
21450	21395	1022.218824
21450	21451	257.1460978
21450	21508	506.0440749
21451	21452	1021.375275
21451	21507	257.0094799
21451	21509	507.1597839
21452	21400	345.6154282
21452	21453	257.3705786
21453	21401	432.1512472
21453	21454	258.6182685
21454	21402	506.4354467
21454	21455	256.9536925
21455	21406	576.3811654
21455	21459	258.6066747
21456	21407	172.1580076
21457	21410	899.2657187
21457	21463	260.1439776
21458	21457	96.14057475
21459	21408	646.5986854
21459	21460	276.1876143
21460	21456	724.7508001
21460	21461	281.1124153
21461	21458	801.4015166
21461	21462	260.097947
21462	21464	840.1538721
21462	21521	262.3087283
21463	21413	363.7747141
21463	21465	249.5456622
21464	21463	61.39736904
21465	21414	368.8395896
21465	21467	278.5309517
21466	21416	826.1408569
21467	21466	74.50297817
21467	21469	257.162122
21468	21417	761.3835801
21468	21470	269.789081
21469	21468	137.7633206
21469	21472	264.5024601
21470	21418	699.6580516
21470	21471	261.9457485
21471	21419	664.6682206
21471	21473	263.0641026
21472	21470	200.0343577
21472	21474	255.702112
21473	21475	261.2835692
21473	21477	650.8616343
21474	21471	233.8249838
21474	21476	265.5857739
21475	21478	639.1158773
21475	21482	260.6289632
21476	21473	248.8360828
21476	21530	260.3198265
21482	21479	626.717804
21482	21534	263.678296
21492	78204	22.29818295
21492	103244	227.2442974
21493	21497	513.0963237
21493	21502	257.2779745
21494	21495	256.9817452
21495	21496	257.0531099
21496	21497	257.2578583
21497	21498	257.0580033
21498	21506	278.6626008
21501	21508	257.0497364
21502	21498	514.079101
21502	87351	33.26681064
21502	103245	42.04518421
21502	103246	43.34036418
21507	21453	1020.779482
21507	21510	507.375706
21507	21514	257.3482254
21508	21509	257.8118176
21509	21510	256.1464124
21510	21511	258.825221
21511	21518	257.3596977
21514	21454	1018.505899
21514	21511	506.8100577
21514	21515	258.2860436
21515	21455	1020.262392
21515	21516	257.1034343
21515	21518	507.3492502
21516	21517	277.6398752
21516	21519	507.2827125
21517	21460	1023.204214
21517	21520	507.9725783
21517	21522	280.7320378
21518	21519	257.928681
21518	78290	479.5754324
21519	21520	274.9371504
21519	78289	473.5000946
21520	22491	284.2512254
21520	22492	290.1272875
21521	21465	897.7647471
21521	21525	257.6899556
21522	21461	1022.863412
21522	21523	261.6991825
21522	22491	509.8702632
21523	21462	1022.843665
21523	21524	259.2266909
21523	22505	509.3118046
21524	21521	1023.729183
21524	22503	261.4386513
21524	22506	509.1557786
21525	21467	897.920032
21525	21526	263.9565316
21526	21469	898.4173221
21526	21527	259.6770874
21527	21472	897.6463227
21527	21528	260.4305976
21528	21474	898.7616055
21528	21531	261.9843927
21529	21527	626.4895926
21529	22516	259.6138033
21530	21475	260.1776707
21530	21535	260.346765
21531	21476	898.3472041
21531	21532	260.355639
21532	21530	897.8626563
21532	21533	260.401321
21533	21535	898.4932731
21533	22523	259.4795507
21534	21480	606.3336698
21534	21536	261.9451669
21535	21482	273.6378646
21535	21538	260.5651696
21536	21481	573.1088614
21536	21537	264.8464943
21537	21484	510.0136126
21537	21544	271.7471613
21538	21534	293.7541489
21538	21539	261.3316255
21539	21536	328.6115399
21539	21540	261.0323901
21540	21537	389.5882624
21540	21541	258.6372956
21541	21544	462.7321038
21541	21549	281.9908454
21544	21485	437.287251
21544	21545	303.9378601
21545	21486	325.1615151
21545	21546	301.4894374
21546	21542	211.7474781
21546	21547	196.6287975
21547	21543	150.2746874
21548	21547	104.2803166
21549	21545	574.2359685
21549	21550	281.5485456
21550	21546	687.5431155
21550	22532	279.1323866
22485	78311	39.2050312
22485	87364	29.75242672
22488	22489	257.663156
22489	22500	277.5497845
22491	22495	287.5358621
22491	22505	258.0920643
22492	22495	283.8300345
22492	78924	184.0284263
22493	22496	275.2195625
22493	78312	42.83406403
22494	22508	695.0424307
22495	22499	256.5744575
22496	66038	79.07337454
22496	78622	42.19514705
22497	22501	692.6612944
22498	22500	334.8375952
22498	22502	803.3697657
22499	22509	262.8826983
22500	22576	280.87471
22501	22513	171.2179265
22501	78140	35.87907457
22502	22578	333.8434988
22503	21525	1022.403622
22503	22504	260.1271057
22503	22507	509.0015539
22504	21526	1023.719314
22504	22510	508.0290504
22504	22518	260.9606118
22505	22499	285.6231183
22505	22506	261.7565188
22506	22507	260.9442892
22506	22509	285.4732067
22507	22510	260.6285516
22507	22511	285.593618
22508	22513	173.0148682
22508	84205	29.15331951
22509	22511	260.8761735
22509	84205	48.95182146
22510	22512	260.829906
22510	22514	285.5189559
22511	22514	260.6547289
22511	78853	195.4203374
22512	22522	261.0144086
22512	78115	480.6062757
22513	78140	152.5714343
22513	102824	54.23027161
22514	78401	194.525703
22515	22586	260.6185789
22515	78386	33.96593524
22516	21528	625.6419039
22516	22517	262.3076548
22517	21531	626.1685193
22517	22524	260.9727864
22518	21529	395.3158211
22518	22512	510.5407333
22518	22519	261.7466513
22519	22516	397.3058671
22519	22520	260.6919187
22519	22522	509.966505
22520	22517	395.864567
22520	22521	260.9230881
22520	22593	509.6777811
22521	22524	394.0822479
22521	22525	259.4477102
22521	22594	509.9371943
22522	22593	260.9903806
22522	78116	477.2580266
22523	21538	898.9227699
22523	22527	260.4611158
22524	21532	628.0751036
22525	21533	1021.819043
22525	22526	262.9065457
22525	22595	508.8304933
22526	22523	1020.770843
22526	22600	259.3203071
22526	22602	509.2032224
22527	21539	897.7694889
22527	22528	262.1962993
22528	21540	900.1274464
22528	22529	258.5683673
22529	21541	900.3344633
22529	22530	282.1497616
22530	21549	899.2881618
22530	22531	280.355648
22531	21550	900.5998063
22531	22537	279.5248819
22532	21548	723.4035163
22537	22532	900.9289061
22576	22577	260.3834125
22577	22578	260.4681919
22578	22580	261.2011308
22580	22589	260.3921399
22585	22580	323.1641787
22586	22587	260.186199
22586	77975	33.58171525
22587	22588	261.8248295
22587	77976	31.46181823
22588	22596	260.024096
22588	78886	35.0895968
22589	22590	260.6693029
22590	22591	261.0377069
22591	22592	261.221074
22592	22678	261.0255957
22593	22594	261.3552783
22593	78265	479.797978
22594	22595	260.6370269
22594	78266	479.3474703
22595	22602	260.841114
22595	78548	479.3580789
22596	22597	261.7974028
22596	78825	33.33671799
22597	22598	259.740102
22597	78035	33.59307276
22598	22599	261.2742924
22598	78036	32.29173176
22599	22606	259.5282783
22599	78267	32.73294823
22600	22527	1021.679053
22600	22601	261.5363307
22600	22603	508.9023129
22601	22528	1020.917426
22601	22604	508.923497
22601	22607	260.8550109
22602	22603	260.3978706
22602	77916	479.9589509
22603	22604	260.4416861
22603	77917	477.6640667
22604	22605	260.6066817
22604	78810	478.2721541
22605	22614	280.7366748
22605	78341	479.5333218
22606	22686	262.9668767
22606	77871	32.06276327
22607	22529	1020.960239
22607	22605	508.7124877
22607	22608	280.3305355
22608	22530	1022.018528
22608	22611	288.1931895
22608	22614	509.0532509
22609	22531	818.2599252
22609	22610	268.5581103
22610	22537	824.5838055
22611	22609	202.3295324
22611	22612	257.9768351
22611	22693	509.6897631
22612	22610	202.072215
22614	22693	281.1874643
22614	78342	474.8429419
22678	22679	260.3015573
22679	22680	260.2205885
22680	22681	261.6170144
22681	22689	259.7859634
22686	22687	259.6455764
22686	77872	32.55024657
22687	22688	280.3212129
22687	77873	34.11865892
22688	22696	282.8448735
22688	77874	35.58775553
22689	22690	260.891543
22690	22691	282.1168336
22691	22692	279.5810506
22692	22750	260.9105732
22693	22694	260.3565546
22693	78609	477.7792923
22696	22698	260.5731786
22696	78922	36.27888607
63334	20853	73.62060362
63335	20854	166.7608242
66038	22494	180.9724651
66038	22497	162.6237721
69272	20851	180.3035927
69275	20847	56.36729379
69275	20849	325.2605725
69276	20847	200.756322
69276	69275	220.9375682
75044	22591	264.3183437
75045	22590	264.4135678
77871	22681	481.1090849
77871	77872	262.7689134
77872	22689	480.2649617
77872	77873	259.5118172
77873	22690	478.8493509
77873	77874	280.4513581
77874	22691	476.5053124
77874	78922	282.8214618
77894	21439	18.94387438
77894	78604	257.3421285
77895	21438	19.33397099
77895	77894	256.763115
77916	22599	30.48965507
77916	77917	259.592457
77917	22606	33.0431315
77917	78810	262.8657174
77942	20841	16.2273227
77942	77943	276.7947805
77943	20927	17.32130266
77943	78818	278.2428963
77944	20824	24.09389649
77944	77945	242.0247545
77945	20833	23.23644273
77945	78460	244.7348323
77946	20835	121.3121188
77946	77947	246.3204036
77975	22589	476.7400766
77975	77976	261.6414996
77976	75045	214.8436971
77976	78886	260.432418
78035	22678	479.0972333
78035	78036	260.130048
78036	22679	480.2763711
78036	78267	260.2775147
78063	20939	491.9927027
78063	78064	257.7471197
78064	20940	490.4881817
78064	78632	256.6504893
78115	22587	31.56148675
78115	78116	262.0487906
78116	22588	31.4349173
78116	78265	260.8716632
78140	22502	30.16489406
78140	102819	56.59182158
78204	21496	490.3789101
78204	103243	226.3466021
78265	22596	30.26593912
78265	78266	261.0724197
78266	22597	30.61318775
78266	78548	260.0236108
78267	22680	480.7281527
78267	77871	260.475597
78289	22493	39.90062503
78289	78924	275.0127837
78290	22485	31.48178516
78290	87364	43.2073826
78290	103247	26.89823998
78311	22488	474.8390238
78311	87364	49.77291663
78311	103248	26.58368694
78312	22489	468.5567537
78312	78622	275.1875794
78341	22687	30.23941347
78341	78342	280.1105121
78342	22688	35.47765522
78342	78609	283.0572609
78376	20836	17.86205645
78376	87307	150.2944628
78386	22585	155.7198915
78386	77975	260.5712915
78401	22586	31.90664141
78401	78115	260.5418185
78460	20834	24.53400912
78460	78376	247.0763383
78548	22598	31.44729511
78548	77916	261.3398
78604	21492	17.60971334
78604	103242	227.1447474
78609	22696	31.6685834
78609	87400	260.5004519
78622	22498	137.2455416
78630	21494	490.2690652
78630	78631	256.6208452
78631	21495	491.5448335
78631	78204	257.6963647
78632	20941	489.6497474
78632	78881	258.7360115
78641	78642	107.0340113
78642	20843	96.24520994
78642	78815	276.0772545
78684	20932	493.0707678
78684	78063	257.5943482
78694	20828	498.5352098
78694	78695	243.7223678
78695	20826	184.1511355
78695	77946	244.1952892
78810	22686	31.9358366
78810	78341	259.929128
78815	20931	492.7045933
78815	78684	277.6088492
78817	20936	17.48012052
78817	78839	256.4254884
78818	20935	16.29496463
78818	78817	257.3183435
78825	22592	479.4469479
78825	78035	261.6731073
78839	20937	18.55271699
78839	78841	258.3329071
78840	21437	19.53074675
78840	77895	258.3445504
78841	20938	16.68258633
78841	78840	257.2863838
78853	22515	28.67415761
78853	78401	260.0924144
78881	21007	491.6340318
78881	78630	257.3874785
78886	75044	214.0178179
78886	78825	260.0828682
78922	22692	476.9034417
78922	78037	260.4675844
78924	22496	36.44199377
84205	22513	171.4324681
84205	102821	56.99818716
87307	77942	107.8914271
87351	21503	243.7069012
87364	22493	226.8078962
99068	20823	20.99704071
99068	77944	241.3149004
99069	20827	495.8040444
99069	78694	243.1900414
99070	20825	500.4960451
99070	99079	133.1274526
99071	20822	16.85567271
99071	99076	164.8280332
99072	99070	243.5244888
99073	99071	242.7729861
99075	99068	79.96839182
99075	99076	114.1962809
99076	99068	77.55440622
99076	99078	35.93599856
99078	20823	106.7122598
99079	99069	107.6795682
102707	20822	240.857848
102817	78386	179.4616784
102819	102817	84.66265374
102821	102822	117.0594583
102822	78853	181.9955619
102823	22515	182.8877104
102824	102823	24.43587279
103242	21493	34.57885987
103243	21493	39.41984074
103244	21493	29.61284715
103245	78325	244.4896659
103246	78435	247.5716751
103247	78289	229.8634424
103248	78312	231.2644415